Edge effects on species establishement, growth and survival in an experimental plant invasion
…
Seedling herbivory

## # A tibble: 20,160 x 12
##    site… site… age   dist… spec… stat… habi… f_ha… comm… year  herb… surv…
##    <chr> <chr> <chr> <int> <chr> <fct> <dbl> <fct> <fct> <chr> <int> <int>
##  1 Cica… CH    Youn…     0 R     Nati…     0 0-5 m Redb… 2004      1     1
##  2 Cica… CH    Youn…     0 R     Nati…     0 0-5 m Redb… 2004      1     1
##  3 Cica… CH    Youn…     0 R     Nati…     0 0-5 m Redb… 2004      1     1
##  4 Cica… CH    Youn…     0 R     Nati…     0 0-5 m Redb… 2004      1     1
##  5 Cica… CH    Youn…     0 D     Nati…     0 0-5 m Dogw… 2004      0     1
##  6 Cica… CH    Youn…     0 D     Nati…     0 0-5 m Dogw… 2004      0     1
##  7 Cica… CH    Youn…     0 D     Nati…     0 0-5 m Dogw… 2004      0     1
##  8 Cica… CH    Youn…     0 D     Nati…     0 0-5 m Dogw… 2004      0     1
##  9 Cica… CH    Youn…     0 R     Nati…     0 0-5 m Redb… 2004      2     1
## 10 Cica… CH    Youn…     0 R     Nati…     0 0-5 m Redb… 2004      2     1
## # ... with 20,150 more rows
…
